{
    "count": 25,
    "next": "https://swapi.dev/api/species/?search=a&page=2",
    "previous": null,
    "results": [
        {
            "name": "Human",
            "classification": "mammal",
            "designation": "sentient",
            "average_height": "180",
            "skin_colors": "caucasian, black, asian, hispanic",
            "hair_colors": "blonde, brown, black, red",
            "eye_colors": "brown, blue, green, hazel, grey, amber",
            "average_lifespan": "120",
            "homeworld": "https://swapi.dev/api/planets/9/",
            "language": "Galactic Basic",
            "people": [
                "https://swapi.dev/api/people/66/",
                "https://swapi.dev/api/people/67/",
                "https://swapi.dev/api/people/68/",
                "https://swapi.dev/api/people/74/"
            ],
            "films": [
                "https://swapi.dev/api/films/1/",
                "https://swapi.dev/api/films/2/",
                "https://swapi.dev/api/films/3/",
                "https://swapi.dev/api/films/4/",
                "https://swapi.dev/api/films/5/",
                "https://swapi.dev/api/films/6/"
            ],
            "created": "2014-12-10T13:52:11.567000Z",
            "edited": "2014-12-20T21:36:42.136000Z",
            "url": "https://swapi.dev/api/species/1/"
        },
        {
            "name": "Rodian",
            "classification": "sentient",
            "designation": "reptilian",
            "average_height": "170",
            "skin_colors": "green, blue",
            "hair_colors": "n/a",
            "eye_colors": "black",
            "average_lifespan": "unknown",
            "homeworld": "https://swapi.dev/api/planets/23/",
            "language": "Galatic Basic",
            "people": [
                "https://swapi.dev/api/people/15/"
            ],
            "films": [
                "https://swapi.dev/api/films/1/"
            ],
            "created": "2014-12-10T17:05:26.471000Z",
            "edited": "2014-12-20T21:36:42.144000Z",
            "url": "https://swapi.dev/api/species/4/"
        },
        {
            "name": "Yoda's species",
            "classification": "mammal",
            "designation": "sentient",
            "average_height": "66",
            "skin_colors": "green, yellow",
            "hair_colors": "brown, white",
            "eye_colors": "brown, green, yellow",
            "average_lifespan": "900",
            "homeworld": "https://swapi.dev/api/planets/28/",
            "language": "Galactic basic",
            "people": [
                "https://swapi.dev/api/people/20/"
            ],
            "films": [
                "https://swapi.dev/api/films/2/",
                "https://swapi.dev/api/films/3/",
                "https://swapi.dev/api/films/4/",
                "https://swapi.dev/api/films/5/",
                "https://swapi.dev/api/films/6/"
            ],
            "created": "2014-12-15T12:27:22.877000Z",
            "edited": "2014-12-20T21:36:42.148000Z",
            "url": "https://swapi.dev/api/species/6/"
        },
        {
            "name": "Trandoshan",
            "classification": "reptile",
            "designation": "sentient",
            "average_height": "200",
            "skin_colors": "brown, green",
            "hair_colors": "none",
            "eye_colors": "yellow, orange",
            "average_lifespan": "unknown",
            "homeworld": "https://swapi.dev/api/planets/29/",
            "language": "Dosh",
            "people": [
                "https://swapi.dev/api/people/24/"
            ],
            "films": [
                "https://swapi.dev/api/films/2/"
            ],
            "created": "2014-12-15T13:07:47.704000Z",
            "edited": "2014-12-20T21:36:42.151000Z",
            "url": "https://swapi.dev/api/species/7/"
        },
        {
            "name": "Mon Calamari",
            "classification": "amphibian",
            "designation": "sentient",
            "average_height": "160",
            "skin_colors": "red, blue, brown, magenta",
            "hair_colors": "none",
            "eye_colors": "yellow",
            "average_lifespan": "unknown",
            "homeworld": "https://swapi.dev/api/planets/31/",
            "language": "Mon Calamarian",
            "people": [
                "https://swapi.dev/api/people/27/"
            ],
            "films": [
                "https://swapi.dev/api/films/3/"
            ],
            "created": "2014-12-18T11:09:52.263000Z",
            "edited": "2014-12-20T21:36:42.153000Z",
            "url": "https://swapi.dev/api/species/8/"
        },
        {
            "name": "Sullustan",
            "classification": "mammal",
            "designation": "sentient",
            "average_height": "180",
            "skin_colors": "pale",
            "hair_colors": "none",
            "eye_colors": "black",
            "average_lifespan": "unknown",
            "homeworld": "https://swapi.dev/api/planets/33/",
            "language": "Sullutese",
            "people": [
                "https://swapi.dev/api/people/31/"
            ],
            "films": [
                "https://swapi.dev/api/films/3/"
            ],
            "created": "2014-12-18T11:26:20.103000Z",
            "edited": "2014-12-20T21:36:42.157000Z",
            "url": "https://swapi.dev/api/species/10/"
        },
        {
            "name": "Neimodian",
            "classification": "unknown",
            "designation": "sentient",
            "average_height": "180",
            "skin_colors": "grey, green",
            "hair_colors": "none",
            "eye_colors": "red, pink",
            "average_lifespan": "unknown",
            "homeworld": "https://swapi.dev/api/planets/18/",
            "language": "Neimoidia",
            "people": [
                "https://swapi.dev/api/people/33/"
            ],
            "films": [
                "https://swapi.dev/api/films/4/"
            ],
            "created": "2014-12-19T17:07:31.319000Z",
            "edited": "2014-12-20T21:36:42.160000Z",
            "url": "https://swapi.dev/api/species/11/"
        },
        {
            "name": "Gungan",
            "classification": "amphibian",
            "designation": "sentient",
            "average_height": "190",
            "skin_colors": "brown, green",
            "hair_colors": "none",
            "eye_colors": "orange",
            "average_lifespan": "unknown",
            "homeworld": "https://swapi.dev/api/planets/8/",
            "language": "Gungan basic",
            "people": [
                "https://swapi.dev/api/people/36/",
                "https://swapi.dev/api/people/37/",
                "https://swapi.dev/api/people/38/"
            ],
            "films": [
                "https://swapi.dev/api/films/4/",
                "https://swapi.dev/api/films/5/"
            ],
            "created": "2014-12-19T17:30:37.341000Z",
            "edited": "2014-12-20T21:36:42.163000Z",
            "url": "https://swapi.dev/api/species/12/"
        },
        {
            "name": "Toydarian",
            "classification": "mammal",
            "designation": "sentient",
            "average_height": "120",
            "skin_colors": "blue, green, grey",
            "hair_colors": "none",
            "eye_colors": "yellow",
            "average_lifespan": "91",
            "homeworld": "https://swapi.dev/api/planets/34/",
            "language": "Toydarian",
            "people": [
                "https://swapi.dev/api/people/40/"
            ],
            "films": [
                "https://swapi.dev/api/films/4/",
                "https://swapi.dev/api/films/5/"
            ],
            "created": "2014-12-19T17:48:56.893000Z",
            "edited": "2014-12-20T21:36:42.165000Z",
            "url": "https://swapi.dev/api/species/13/"
        },
        {
            "name": "Aleena",
            "classification": "reptile",
            "designation": "sentient",
            "average_height": "80",
            "skin_colors": "blue, gray",
            "hair_colors": "none",
            "eye_colors": "unknown",
            "average_lifespan": "79",
            "homeworld": "https://swapi.dev/api/planets/38/",
            "language": "Aleena",
            "people": [
                "https://swapi.dev/api/people/47/"
            ],
            "films": [
                "https://swapi.dev/api/films/4/"
            ],
            "created": "2014-12-20T09:53:16.481000Z",
            "edited": "2014-12-20T21:36:42.171000Z",
            "url": "https://swapi.dev/api/species/16/"
        }
    ]
}